module access-log-chart

go 1.15

require (
	github.com/blend/go-sdk v1.20210205.5 // indirect
	github.com/golang/freetype v0.0.0-20170609003504-e2365dfdc4a0 // indirect
	github.com/wcharczuk/go-chart v2.0.1+incompatible
	golang.org/x/image v0.0.0-20201208152932-35266b937fa6 // indirect
)
